{
    "title": "ocampaper 2",
    "problem": "What is the second contract of <code>0xd62cA668B1Afc2BbF5f756F4A883415f2Bd52763</code> in ropsten?",
    "score": 200,
    "category": "blockchain",
    "flag": "flag-UgQtvTigJe8i3zqciRH6jC6qomt91Vga"
}
