{
    "title": "ziplist",
    "problem": "http://ocamlab.jp:4214/<br><a href=\"/static/challs/ziplist.zip\">ziplist.zip</a>",
    "score": 300,
    "category": "KoH",
    "flag": "flag-oHBiOUj43r8OPTLogqcKKbb1c1bjq7gD"
}
